{
  "project_info": {
    "project_number": "997614317902",
    "firebase_url": "https://tcoyapp.firebaseio.com",
    "project_id": "tcoyapp",
    "storage_bucket": "tcoyapp.appspot.com"
  },
  "client": [
    {
      "client_info": {
        "mobilesdk_app_id": "1:997614317902:android:deba327203c9ec47a72e1f",
        "android_client_info": {
          "package_name": "com.example.android.tcoyapp"
        }
      },
      "oauth_client": [
        {
          "client_id": "997614317902-6t3ptdvtqolla63o9okvqbog2tg5vokn.apps.googleusercontent.com",
          "client_type": 1,
          "android_info": {
            "package_name": "com.example.android.tcoyapp",
            "certificate_hash": "e2b330e9598e0efd0986b28d1c1f1a974857c2e2"
          }
        },
        {
          "client_id": "997614317902-lro274l8q5du21rf925cpb13isgcifp8.apps.googleusercontent.com",
          "client_type": 3
        }
      ],
      "api_key": [
        {
          "current_key": "AIzaSyDgSG6qnvNwLKEVrWecO4-hwgRVgDj6Rgo"
        }
      ],
      "services": {
        "appinvite_service": {
          "other_platform_oauth_client": [
            {
              "client_id": "997614317902-lro274l8q5du21rf925cpb13isgcifp8.apps.googleusercontent.com",
              "client_type": 3
            }
          ]
        }
      }
    }
  ],
  "configuration_version": "1"
}